[
  {
    "ident": "XPBank",
    "version": "1.2.5",
    "download_url": "https://bitbucket.org/pd2-rs/xp-bank/downloads/XP_Bank.zip",
    "patchnotes_url": "https://modworkshop.net/mod/31975#changelog"
  }
]